state,polarity
AL,0.8059164946400439
AZ,0.8659407455842594
CA,0.7367349506716199
CO,0.8872315218456926
GA,0.2412361084966025
HI,0.6521031218086766
IL,0.6614015738173793
IN,0.5448735138084563
KS,0.7233699807938815
MA,0.8513693351458371
ME,0.20684961065504848
MN,0.6745386844938444
MO,0.5913861974579075
NC,0.7162439604759531
NJ,0.6204955659843294
NV,0.4095501137912021
NY,0.6073269723624015
OH,0.6077191507368946
OR,0.8276718429856148
PA,0.8024271758548867
SC,0.4278075853944976
TN,0.914080168074508
TX,0.4569520987231622
VA,0.5553368312415611
WA,0.6144776859871607
WI,0.735119047619047
WY,0.4884421528266023
