,tweet_id,text,sentiment,polarity,favorite_count,retweet_count,created_at,coordinates,state
0,1073167447270801413,b'@TheJusticeDept Continuing my complaint about harassment from female cleaners at Hampton Inn JFK referring to Deanna from @SkyWestAirlines CQ.',positive,0.7963907518150284,0,0,Thu Dec 13 10:47:12 +0000 2018,,None
1,1073147144415129600,b'@TheJusticeDept Continuing my complaint about daily harassment through innuendo including male stranger in GRR Drury saying \xe2\x80\x9cwhat\xe2\x80\x9d like Maggie Brewster &amp; then saying \xe2\x80\x9cyou\xe2\x80\x99re gonna have to...\xe2\x80\x9d about @SkyWestAirlines. You\xe2\x80\x99re really powerful so things work out iwoever you want.',positive,0.9177558019897983,0,0,Thu Dec 13 09:26:31 +0000 2018,,None
2,1073143758387142658,"b'@TheJusticeDept Continuing my complaint about daily stalking, harassment &amp; intimidation from govt strangers who mirror &amp; harass my every move, harassment @SkywestAirlines from Pavel Astashkin, Thiago De Agostino, George Cruz, Paul Zemboy, Nick Dirks, many others for sport.'",positive,0.9322209752100223,0,0,Thu Dec 13 09:13:04 +0000 2018,,None
3,1073032056957857792,b'@skywestjobs Thanks to Natasha  for stopping by today to share about her career as a \xe2\x81\xa6\xe2\x81\xa9 flight attendant!  Great local support from PSP \xe2\x81\xa6\xe2\x81\xa6@SkyWestAirlines\xe2\x81\xa9 https://t.co/orAHX0jKsA',positive,0.9722467348604116,0,0,Thu Dec 13 01:49:13 +0000 2018,"[33.6403013, -116.1394485]",CA
4,1072911989662515200,"b'\xf0\x9f\x91\x8e\xf0\x9f\x8f\xbc Flight home diverted to Fargo because of heavy fog, #NorthDakotaWinter.\n\n\xf0\x9f\x91\x8d\xf0\x9f\x8f\xbc @Delta/@SkyWestAirlines crew was awesome and empathetic, and bonus, snacks at the gate while we wait. Thank you!\n\nThis is the time of the year you have to let go of things out of your control. #DL4799 https://t.co/SEiDRb3UxR'",positive,0.8014080027374455,2,0,Wed Dec 12 17:52:06 +0000 2018,"[-96.82562011450523, 46.91994786960876]",ND
5,1072886730573803520,b'@usatodaytravel @AmericanAir @SkyWestAirlines HIS fault. What a manchild.',neutral,0.41403775628982714,2,0,Wed Dec 12 16:11:44 +0000 2018,,None
6,1072883784964587520,b'Regional One leases 10 CRJ200 #aircraft to @SkyWestAirlines: https://t.co/9K0qJMnb9H',neutral,0.568584070796459,0,0,Wed Dec 12 16:00:02 +0000 2018,"[43.453168, -80.494423]",
7,1072874851877224449,"b'Actor Stephen Keys, of ""Soul Plane"" and ""Big Time Rush,"" is suing @AmericanAir and @SkyWestAirlines after one of his pinky fingers allegedly got stuck in a plane\'s armrest for almost an hour on a flight in September. https://t.co/OsJWob72Yq'",positive,0.9815987114404154,1,2,Wed Dec 12 15:24:32 +0000 2018,,None
8,1072691108726087684,"b'@TheJusticeDept Continuing my complaint about constant abuse, harasment &amp; mistreatment from @SkyWestAirlines employees Thiago De Agostino, George Cruz &amp; Gabrielle Weetman.'",positive,0.8562283009890695,0,0,Wed Dec 12 03:14:24 +0000 2018,,None
9,1072672056662261760,b'@TheJusticeDept @SkyWestAirlines pilots &amp; FAs alongnwith male strangers have openly mistreated me using hurtful sexual innuendo &amp; jokes. I know things work out however you want bc you\xe2\x80\x99re powerful. 9yrs of abuse public &amp; private bc you can.',neutral,0.5533150555791556,0,0,Wed Dec 12 01:58:42 +0000 2018,,None
10,1072629589103599617,"b'@TheJusticeDept Continuing my complaint about nameless govt official altering TV to say, \xe2\x80\x9che\xe2\x80\x99s just trying to enjoy his breakfast\xe2\x80\x9d along w other torturous things for yrs, daily workplace abuse @SkyWestAirlines for yrs'",positive,0.8122525713107698,0,0,Tue Dec 11 23:09:57 +0000 2018,,None
11,1072561064091549701,b'@TheJusticeDept Continuing my complaint about Thiago De Agostino @SkywestAirlines',positive,0.9272536118836059,0,0,Tue Dec 11 18:37:39 +0000 2018,,None
12,1072499607584813057,b'I like this @SkyWestAirlines pilot telling us some geographic points we\xe2\x80\x99ll fly over on our @Delta flight to SLC. Fun tidbits.',positive,0.8372629209513635,2,0,Tue Dec 11 14:33:27 +0000 2018,"[35.4729886, -97.5170536]",OK
13,1072485248846520320,"b'@TheJusticeDept Continuing my complaint about govt actions including daily stalking, harassment through innuendo, workplace abuse @SkyWestAirlines, TV alterations for yrs, simulated lynching covered up by you. There is no consequence to illegal actions if you work for the DOJ.'",positive,0.9044686468672435,0,0,Tue Dec 11 13:36:23 +0000 2018,,None
14,1072468071166738433,"b'@SkyWestAirlines Continuing my complaint about constant goading &amp; harassment from Thiago De Agostino, George Cruz, Ganrielle Weetman, Nick Dirks, Pavel Astashkin &amp; many others alongside strangers.'",positive,0.9764960090943731,0,0,Tue Dec 11 12:28:08 +0000 2018,,None
15,1072305523809239040,"b'@TheJusticeDept Continuing my complaint about gvot actions including daily harassment, isolation, intimidation &amp; abuse alongside @SkYWestAirlines employees &amp; others for yrs, TV alterations for yrs, no iPod for yrs, hypnosis, simulated lynching covered up by you.'",positive,0.9988394099235158,0,0,Tue Dec 11 01:42:14 +0000 2018,,None
16,1072287078216581121,"b'@TheJusticeDept Continuing my complaint about daily stalking, harassment &amp; innuendo in businesses where I am a patron, in hotel, @SkyWestAirlines &amp; privately through TV alterations amounting to torture.'",positive,0.7759693768656756,0,0,Tue Dec 11 00:28:56 +0000 2018,,None
17,1072278798807248896,"b'@TheJusticeDept @SkyWestAirlines Continuing my complaint about De Agostino, Cruz, &amp; all other coworkers who have participated in workplace abuse for sport passed  in to Nicole Chapman.'",positive,0.97897345199329,0,0,Mon Dec 10 23:56:02 +0000 2018,,None
18,1072277709974310912,b'@SkyWestAirlines Continuing my complaint about workplace harassment from crew members lasting yrs.',positive,0.8444709544802547,0,0,Mon Dec 10 23:51:42 +0000 2018,,None
19,1072196986651070464,"b'The flight attendant safety brief from last night\n\xe2\x80\x9c...pull the mask toward you, place it over your nose and mouth, STOP SCREAMING, and breathe normally. \xe2\x80\x9c\n\nThank you, @SkyWestAirlines'",positive,0.9040565632409255,0,0,Mon Dec 10 18:30:56 +0000 2018,,None
20,1072190460184145920,"b'@TheJusticeDept Continuing my complaint about daily public, private &amp; workplace abuse lasting 9yrs including daily workplace abuse @SkyWestAirlines for yrs alongside men yelling \xe2\x80\x9cnot interested\xe2\x80\x9d, yrs of TV alterations amounting to torture. There is no protection from govt abuses.'",positive,0.9328984731863029,0,0,Mon Dec 10 18:05:00 +0000 2018,,None
21,1072067310603694080,"b'@TheJusticeDept Continuing my complaint about govt role in daily workplace harassment @SkyWestAirlines,9yrs of daily targeted abuse while torturing through TV alterations,punishment for exercise for yrs,denying access to justice about a simulated lynching&amp;hypnosis several yrs ago'",positive,0.9977530833590789,0,0,Mon Dec 10 09:55:39 +0000 2018,,None
22,1071990157212049408,"b'@TheJusticeDept Continuing my complaint about workplace harassment @SkywestAirlines today from Cruz, Weetman, De Agostino, unidentified passengers stalking &amp; harassing onboard aircraft.'",positive,0.9209544988799183,0,0,Mon Dec 10 04:49:04 +0000 2018,,None
23,1071832238424252418,"b'@Delta @SkyWestAirlines #CRJ-200 @DTWeetin on a #cold #winters day , this was taken from #Delta #Airlines #OpsTower #N455SW #avgeek #detroit https://t.co/2vO9ockZq3'",positive,0.9312203506480663,0,0,Sun Dec 09 18:21:33 +0000 2018,"[43.0481221, -76.1474244]",NY
24,1071807195627601922,b'@TheJusticeDept Continuing my complaint about daily targeted workplace abuse @SkywestAirlines for yrs including creating animosity &amp; isolation betw me &amp; other crew while encouraging them to mistreat me for sport.',positive,0.9798244422435729,0,0,Sun Dec 09 16:42:03 +0000 2018,,None
25,1071674488272564225,"b'Starting March 31, 2019 @United will begin operating flights from PAE - DEN (2X Daily) &amp; SFO (4X Daily) all on E-175 operated by @SkyWestAirlines #avgeek #airlines #KPAE #KSFO #KDEN @FlyPaineField @flySFO @DENAirport #UA #UAL #E75 #OO #SKW https://t.co/ZRouQjlerk'",positive,0.9646515897569284,0,0,Sun Dec 09 07:54:43 +0000 2018,"[-122.436232, 47.4953154]",WA
26,1071582434695667712,b'The 12th annual \xe2\x80\x9cFantasy Flight\xe2\x80\x9d departs @COSAirport to the \xe2\x80\x9cNorth Pole\xe2\x80\x9d! @SkyWestAirlines is proud to partner with @JrLeagueofCS @CSCD to bring the magic of the holidays to a special group of passengers and their families. https://t.co/Y2VH8QghAr',positive,0.9995251732753854,20,8,Sun Dec 09 01:48:56 +0000 2018,"[38.8339578, -104.8253485]",CO
27,1071571179855589376,"b'@TheJusticeDept Continuing my complaint about govt use of torture &amp; imprisonment through yrs of TV alterations, no iPod, daily public &amp; private abuse &amp; workplace harassment @SkyWestAirlines lasting yrs &amp; covered up. You are covering up the torture of a human being bc you can'",positive,0.9908313604505257,0,0,Sun Dec 09 01:04:12 +0000 2018,,None
28,1071515033144868871,b'@TheJusticeDept Continuing my complaint about govt role in daily workplace stalking &amp; abuse @SkyWestAirlines including today\xe2\x80\x99s focus on how fat I am from unidentified pilot in crew lounge &amp; De Agostino &amp; male stranger in gate area',positive,0.9761969551080107,0,0,Sat Dec 08 21:21:06 +0000 2018,,None
29,1071463470242193408,"b'@TheJusticeDept Continuing my complaint about govt role in daily stalking, harassment &amp; abuse @SkyWestAirlines covered up&amp; protected by you, continued TV alterations amounting to torture incl telling me I have \xe2\x80\x9caging breasts\xe2\x80\x9d, was being monitored in my hotel rm in torturous way.'",neutral,0.4033399361746236,0,0,Sat Dec 08 17:56:12 +0000 2018,,None
30,1071457122427244547,"b'@TheJusticeDept Continuing my complaint about govt role in daily workplace abuse @SkyWestAirlines for yrs, TV alterations for yrs amounting to torture &amp; imprisonment.'",positive,0.8950890118221688,0,0,Sat Dec 08 17:30:59 +0000 2018,,None
31,1071401837478187008,b'Very disappointed @Delta @SkyWestAirlines \xf0\x9f\x98\xa0',positive,0.6709164352436253,0,0,Sat Dec 08 13:51:18 +0000 2018,"[40.3270127, -86.1746933]",IN
32,1071194892079108103,"b'Very appreciative of @dcairports support of @SkyWestAirlines to OGS/MSS. I hope we get affordable, efficient jet service to northern NY.'",positive,0.9708827319065901,0,0,Sat Dec 08 00:08:58 +0000 2018,,None
33,1071177429954236417,b'@KiraHow81867012 @TheJusticeDept @legalseafoods @deltaairlines @SkyWestAirlines Do you have witnesses who would be willing to back you on this Sweetie?',negative,0.317725955838543,0,0,Fri Dec 07 22:59:35 +0000 2018,,None
34,1071176971885924353,b'@KiraHow81867012 @TheJusticeDept @legalseafoods @deltaairlines @SkyWestAirlines Where is the original? You don\xe2\x80\x99t have a link to it.',neutral,0.494808577279433,0,0,Fri Dec 07 22:57:46 +0000 2018,,None
35,1071090313362620416,b'Two more pilots bound for @SkyWestJobs as First Officers on the CRJ. Our pilots love @SkyWestAirlines ! That makes 15 in the last 3 years that head West. #Goodluck you two. #MGAAviation https://t.co/dzN7JGIR9T',positive,0.6659379290765344,11,3,Fri Dec 07 17:13:25 +0000 2018,,None
36,1070773370453676033,"b'@TheJusticeDept Continuing my complaint about govt actions including daily blanketed workplace abuse &amp; harassment @SkyWestAirlines for yrs, 9yrs of TV alterations, no iPod for yrs. It is torture covered up by you because you\xe2\x80\x99re powerful.'",positive,0.9565591570316802,0,0,Thu Dec 06 20:14:00 +0000 2018,,None
37,1070717565377413120,b'\xe2\x81\xa6@Delta\xe2\x81\xa9 CRJ 200 operated by \xe2\x81\xa6@SkyWestAirlines\xe2\x81\xa9 has arrived from Detroit as flight 4842. https://t.co/Xb3QVtz7Wi',positive,0.9278420548665126,0,0,Thu Dec 06 16:32:15 +0000 2018,"[40.2101972, -77.0047276]",PA
38,1070658864348061697,"b'After getting de-iced, \xe2\x81\xa6@AmericanAir\xe2\x81\xa9 CRJ 700 operated by \xe2\x81\xa6@SkyWestAirlines\xe2\x81\xa9 is taking off and heading to Chicago as flight 3056 today. https://t.co/1tdwd4JYQg'",positive,0.9877475954407637,0,0,Thu Dec 06 12:38:59 +0000 2018,"[40.2101972, -77.0047276]",PA
39,1070545994507476992,b'#CMesaU cleared for takeoff in new @SkyWestAirlines  partnership | https://t.co/eKx1L2MsA5 https://t.co/OkejsORcOu',positive,0.7911796863878304,1,0,Thu Dec 06 05:10:29 +0000 2018,"[-109.060257, 36.992427]",AZ
40,1070496576337076225,"b'@TheJusticeDept Continuing my complaint about govt role in daily stalking, harassment &amp; abuse for 9yrs including daily abuse every single day @SkyWestAirlines for yrs from strangers &amp; employees alike. There is no protection from govt abuses public &amp; private.'",positive,0.9714453638658046,0,0,Thu Dec 06 01:54:07 +0000 2018,,None
41,1070419154665127937,b'@SkyWestAirlines @AmericanAir @_Americaneagle equipment problems &amp; repeated delays with AA4190 &amp; AA3162 earlier today = extremely frustrating.',positive,0.7139938011212882,0,1,Wed Dec 05 20:46:28 +0000 2018,,None
42,1070131951011545088,"b'@TheJusticeDept Continuing my complaint about @SkyWestAirlines harassment &amp; abuse from Gregory Field, Paul Zemboy, Pavel Astashkin, many others lasting yrs.'",positive,0.9841154625492066,0,0,Wed Dec 05 01:45:13 +0000 2018,,None
43,1070102009855049734,"b'@TheJusticeDept Continuing my complaint about govt actions including strangers making fun of me about the simulated lynching 9yrs ago, daily workplace harassment from @SkyWestAirlines employees, continued TV alterations. There is no access to justice for a victim of govt abuses'",positive,0.9472692174275551,0,0,Tue Dec 04 23:46:15 +0000 2018,,None
44,1069971316269301760,b'More than disappointed in Massena Town Council for screwing Ogdensburg and Massena by suggesting @boutiqueair flying to a spoke is a better option for EAS than @SkyWestAirlines flying us direct to major hubs.',positive,0.7605144330559039,0,0,Tue Dec 04 15:06:55 +0000 2018,,None
45,1069839478993313792,"b'If anyone can get me a job with @Delta or @SkyWestAirlines or @AlaskaAir or @AmericanAir ,\n\nI will give you the BEST FOOD HOOK UP with \xe2\x80\x98Lol Hawaiian Grill\xe2\x80\x99 \xf0\x9f\xa4\x9f\xf0\x9f\x8f\xbd\xf0\x9f\x92\xaf'",negative,0.03998118163788392,5,0,Tue Dec 04 06:23:03 +0000 2018,"[-111.9216582, 40.528084]",UT
46,1069827358151139328,"b'@TheJusticeDept Continuing my complaint about stalking &amp; harassment one Walmart today, @SkyWestAirlines, onboard aircraft from 6B'",positive,0.9124838898302406,0,0,Tue Dec 04 05:34:53 +0000 2018,,None
47,1069824631241097216,b'@SkyWestAirlines Continuing my complaint about male pilots saying \xe2\x80\x9cUnder investigation\xe2\x80\x9d about me immediately after I said hello to a colleague &amp; a nameless govt @TheJusticeDept agent altering the TV to repeat it later that day. Here is another tweet for you to ignore bc you can.',positive,0.8399224385756614,0,0,Tue Dec 04 05:24:03 +0000 2018,,None
48,1069772960620314624,"b'@TheJusticeDept Continuing my complaint about nameless govt official saying to me through the TV, \xe2\x80\x9csometimes you\xe2\x80\x99re just too intellectual\xe2\x80\x9d while being openly harassed by @SkyWestAirlines empl onboard AC repeatedly. Active complaint about DOJ ignoring illegal torture &amp;imprisonment'",positive,0.9982241688846316,0,0,Tue Dec 04 01:58:43 +0000 2018,,None
49,1069770729032302592,"b'@TheJusticeDept Continuing my complaint about daily stalking, harassment &amp; abuse for yrs including daily workplace abuse &amp; harassment @SkyWestAirlines fully coached &amp; protected by you for yrs.'",neutral,0.43389794984784724,0,0,Tue Dec 04 01:49:51 +0000 2018,,None
50,1069748807863283712,"b'@TheJusticeDept Continuing my complaint about govt role in criminal abuse, stalking &amp; harassment onboard aircraft for yrs, including affecting galley security multiple times, daily harassment for sport from @SkyWestAirlines employees numbering over 50 employees lasting yrs.'",positive,0.9928304450268302,0,0,Tue Dec 04 00:22:45 +0000 2018,,None
51,1069746686795399168,"b'@TheJusticeDept Continuing my complaint about govt role in daily, targeted workplace harassment &amp; abuse from @SkyWestAirlines employees for yrs for sport.'",positive,0.636559714085663,0,0,Tue Dec 04 00:14:19 +0000 2018,,None
52,1069706090848301057,b'Please join us in congratulating @SkyWestAirlines as we celebrate 35 years of continued service at GJT! https://t.co/i510gHeRDg',positive,0.613389327977229,9,1,Mon Dec 03 21:33:00 +0000 2018,,None
53,1069650421206212609,"b'@TheJusticeDept Continuing my complaint about govt actions including daily targeted stalking, harassment &amp; abuse @SkyWestAirlines for yrs beginning in INH &amp; Continuing in an unnatural &amp; abusive way ever since. Things work out iwoeve you want them to work out. Good for You.'",positive,0.811839966423682,0,0,Mon Dec 03 17:51:48 +0000 2018,,None
